{
  "streams": [
    {
      "title": "Some stream",
      "description": "asdsadasdsadasdsad",
      "id": 1
    },
    {
      "title": "Other stream",
      "description": "qwerftghjkl",
      "id": 2
    },
    {
      "title": "Omer's Stream",
      "description": "HELLO",
      "userId": "104088185347237481846",
      "id": 3
    }
  ]
}